{
  "todos": [
    {
      "value": "888",
      "id": "1gjqdchc6b"
    },
    {
      "value": "333",
      "id": "ddvblxino9"
    },
    {
      "value": "444",
      "id": "oquwt5sr9k"
    },
    {
      "value": "555",
      "id": "9pg6h0ordt"
    },
    {
      "value": "777",
      "id": "pgos3da929"
    }
  ]
}